<?php

/**
 * $CLASS$
 *
 * @package    App
 * @subpackage Seeds
 * @author     Pixel Fusion <info@pixelfusion.co.nz>
 */
class $CLASS$ extends Seeder
{
    public function run()
    {
        $faker = Faker\Factory::create();

        foreach(range(1, 10) as $index) {
            $MODEL$::create([

            ]);
        }
    }
}
